Data Review
…
In the following code hunk, import your data.

data<-read.csv("../athlete_events.csv") 

Part 1

For my first figure, I will user line plot to show the temporal change of sport events number for each Olympic Games, the x axis will be year and y axis will be number of sport events. There will be two lines, one for Summer Olympic Games and the other for Winter.

fig_dat1<-data %>% group_by(Year,Season) %>% summarise(event_count=n_distinct(Event))

####make sure you call the data so it will display in your report
fig_dat1

## # A tibble: 51 x 3
## # Groups:   Year [35]
##     Year Season event_count
##    <int> <fct>        <int>
##  1  1896 Summer          43
##  2  1900 Summer          90
##  3  1904 Summer          95
##  4  1906 Summer          74
##  5  1908 Summer         109
##  6  1912 Summer         107
##  7  1920 Summer         158
##  8  1924 Summer         131
##  9  1924 Winter          17
## 10  1928 Summer         122
## # ... with 41 more rows
…
Part 2

For my first figure, I will user bar chart to show the top3 country in gold leader board with the number of gold medals. The x axis will be year and y axis will be the country with most gold medal.

fig_dat2<-data %>% filter(Medal=='Gold') %>% group_by(Year,Season, NOC) %>% summarise(Gold_Medal_count=n_distinct(Event)) %>% top_n(1, Gold_Medal_count) %>% arrange(desc(Gold_Medal_count))

fig_dat2

## # A tibble: 54 x 4
## # Groups:   Year, Season [51]
##     Year Season NOC   Gold_Medal_count
##    <int> <fct>  <fct>            <int>
##  1  1984 Summer USA                 82
##  2  1980 Summer URS                 80
##  3  1904 Summer USA                 76
##  4  1908 Summer GBR                 56
##  5  1988 Summer URS                 54
##  6  2008 Summer CHN                 51
##  7  1972 Summer URS                 50
##  8  1976 Summer URS                 49
##  9  2012 Summer USA                 46
## 10  2016 Summer USA                 46
## # ... with 44 more rows
…
